legacy/mac_array_tb.vcd
$date
	Thu Nov 27 12:55:28 2025
$end
$version
	Icarus Verilog
$end
$timescale
	1s
$end
$scope module mac_array_tb $end
$var wire 2 ! valid [1:0] $end
$var wire 64 " out_s [63:0] $end
$var parameter 32 # b_bw $end
$var parameter 32 $ bw $end
$var parameter 32 % col $end
$var parameter 32 & psum_bw $end
$var parameter 32 ' row $end
$var reg 1 ( clk $end
$var reg 64 ) in_n [63:0] $end
$var reg 8 * in_w [7:0] $end
$var reg 3 + inst_w [2:0] $end
$var reg 64 , out_display [63:0] $end
$var reg 1 - reset $end
$var reg 2 . valid_reg [1:0] $end
$var integer 32 / j [31:0] $end
$scope module uut $end
$var wire 1 ( clk $end
$var wire 64 0 in_n [63:0] $end
$var wire 8 1 in_w [7:0] $end
$var wire 3 2 inst_w [2:0] $end
$var wire 1 - reset $end
$var wire 2 3 valid [1:0] $end
$var wire 4 4 temp_vld [3:0] $end
$var wire 192 5 temp_psum [191:0] $end
$var wire 64 6 out_s [63:0] $end
$var parameter 32 7 b_bw $end
$var parameter 32 8 bw $end
$var parameter 32 9 col $end
$var parameter 32 : psum_bw $end
$var parameter 32 ; row $end
$var reg 6 < temp_instw [5:0] $end
$scope begin row_num[0] $end
$var parameter 2 = i $end
$scope module mac_row_instance $end
$var wire 1 ( clk $end
$var wire 64 > in_n [63:0] $end
$var wire 2 ? in_w0 [1:0] $end
$var wire 2 @ in_w1 [1:0] $end
$var wire 3 A inst_w [2:0] $end
$var wire 1 - reset $end
$var wire 2 B valid [1:0] $end
$var wire 6 C temp1 [5:0] $end
$var wire 6 D temp0 [5:0] $end
$var wire 64 E out_s [63:0] $end
$var wire 9 F inst [8:0] $end
$var parameter 32 G b_bw $end
$var parameter 32 H bw $end
$var parameter 32 I col $end
$var parameter 32 J psum_bw $end
$scope begin col_num[0] $end
$var parameter 2 K i $end
$scope module mac_tile_instance $end
$var wire 1 ( clk $end
$var wire 32 L in_n [31:0] $end
$var wire 2 M in_w0 [1:0] $end
$var wire 2 N in_w1 [1:0] $end
$var wire 3 O inst_e [2:0] $end
$var wire 3 P inst_w [2:0] $end
$var wire 2 Q out_e0 [1:0] $end
$var wire 2 R out_e1 [1:0] $end
$var wire 1 - reset $end
$var wire 32 S out_s [31:0] $end
$var wire 6 T mult_output1 [5:0] $end
$var wire 6 U mult_output0 [5:0] $end
$var parameter 32 V b_bw $end
$var parameter 32 W bw $end
$var parameter 32 X psum_bw $end
$var reg 2 Y a_q0 [1:0] $end
$var reg 2 Z a_q1 [1:0] $end
$var reg 4 [ b_q0 [3:0] $end
$var reg 4 \ b_q1 [3:0] $end
$var reg 32 ] c_q [31:0] $end
$var reg 3 ^ inst_q [2:0] $end
$var reg 2 _ load_ready_q [1:0] $end
$scope module mult_instance0 $end
$var wire 2 ` a [1:0] $end
$var wire 4 a b [3:0] $end
$var wire 6 b out [5:0] $end
$var wire 6 c product [5:0] $end
$var wire 3 d a_pad [2:0] $end
$var parameter 32 e a_bw $end
$var parameter 32 f b_bw $end
$var parameter 33 g out_bw $end
$upscope $end
$scope module mult_instance1 $end
$var wire 2 h a [1:0] $end
$var wire 4 i b [3:0] $end
$var wire 6 j out [5:0] $end
$var wire 6 k product [5:0] $end
$var wire 3 l a_pad [2:0] $end
$var parameter 32 m a_bw $end
$var parameter 32 n b_bw $end
$var parameter 33 o out_bw $end
$upscope $end
$upscope $end
$upscope $end
$scope begin col_num[1] $end
$var parameter 2 p i $end
$scope module mac_tile_instance $end
$var wire 1 ( clk $end
$var wire 32 q in_n [31:0] $end
$var wire 2 r in_w0 [1:0] $end
$var wire 2 s in_w1 [1:0] $end
$var wire 3 t inst_e [2:0] $end
$var wire 3 u inst_w [2:0] $end
$var wire 2 v out_e0 [1:0] $end
$var wire 2 w out_e1 [1:0] $end
$var wire 1 - reset $end
$var wire 32 x out_s [31:0] $end
$var wire 6 y mult_output1 [5:0] $end
$var wire 6 z mult_output0 [5:0] $end
$var parameter 32 { b_bw $end
$var parameter 32 | bw $end
$var parameter 32 } psum_bw $end
$var reg 2 ~ a_q0 [1:0] $end
$var reg 2 !" a_q1 [1:0] $end
$var reg 4 "" b_q0 [3:0] $end
$var reg 4 #" b_q1 [3:0] $end
$var reg 32 $" c_q [31:0] $end
$var reg 3 %" inst_q [2:0] $end
$var reg 2 &" load_ready_q [1:0] $end
$scope module mult_instance0 $end
$var wire 2 '" a [1:0] $end
$var wire 4 (" b [3:0] $end
$var wire 6 )" out [5:0] $end
$var wire 6 *" product [5:0] $end
$var wire 3 +" a_pad [2:0] $end
$var parameter 32 ," a_bw $end
$var parameter 32 -" b_bw $end
$var parameter 33 ." out_bw $end
$upscope $end
$scope module mult_instance1 $end
$var wire 2 /" a [1:0] $end
$var wire 4 0" b [3:0] $end
$var wire 6 1" out [5:0] $end
$var wire 6 2" product [5:0] $end
$var wire 3 3" a_pad [2:0] $end
$var parameter 32 4" a_bw $end
$var parameter 32 5" b_bw $end
$var parameter 33 6" out_bw $end
$upscope $end
$upscope $end
$upscope $end
$upscope $end
$upscope $end
$scope begin row_num[1] $end
$var parameter 2 7" i $end
$scope module mac_row_instance $end
$var wire 1 ( clk $end
$var wire 64 8" in_n [63:0] $end
$var wire 2 9" in_w0 [1:0] $end
$var wire 2 :" in_w1 [1:0] $end
$var wire 3 ;" inst_w [2:0] $end
$var wire 1 - reset $end
$var wire 2 <" valid [1:0] $end
$var wire 6 =" temp1 [5:0] $end
$var wire 6 >" temp0 [5:0] $end
$var wire 64 ?" out_s [63:0] $end
$var wire 9 @" inst [8:0] $end
$var parameter 32 A" b_bw $end
$var parameter 32 B" bw $end
$var parameter 32 C" col $end
$var parameter 32 D" psum_bw $end
$scope begin col_num[0] $end
$var parameter 2 E" i $end
$scope module mac_tile_instance $end
$var wire 1 ( clk $end
$var wire 32 F" in_n [31:0] $end
$var wire 2 G" in_w0 [1:0] $end
$var wire 2 H" in_w1 [1:0] $end
$var wire 3 I" inst_e [2:0] $end
$var wire 3 J" inst_w [2:0] $end
$var wire 2 K" out_e0 [1:0] $end
$var wire 2 L" out_e1 [1:0] $end
$var wire 1 - reset $end
$var wire 32 M" out_s [31:0] $end
$var wire 6 N" mult_output1 [5:0] $end
$var wire 6 O" mult_output0 [5:0] $end
$var parameter 32 P" b_bw $end
$var parameter 32 Q" bw $end
$var parameter 32 R" psum_bw $end
$var reg 2 S" a_q0 [1:0] $end
$var reg 2 T" a_q1 [1:0] $end
$var reg 4 U" b_q0 [3:0] $end
$var reg 4 V" b_q1 [3:0] $end
$var reg 32 W" c_q [31:0] $end
$var reg 3 X" inst_q [2:0] $end
$var reg 2 Y" load_ready_q [1:0] $end
$scope module mult_instance0 $end
$var wire 2 Z" a [1:0] $end
$var wire 4 [" b [3:0] $end
$var wire 6 \" out [5:0] $end
$var wire 6 ]" product [5:0] $end
$var wire 3 ^" a_pad [2:0] $end
$var parameter 32 _" a_bw $end
$var parameter 32 `" b_bw $end
$var parameter 33 a" out_bw $end
$upscope $end
$scope module mult_instance1 $end
$var wire 2 b" a [1:0] $end
$var wire 4 c" b [3:0] $end
$var wire 6 d" out [5:0] $end
$var wire 6 e" product [5:0] $end
$var wire 3 f" a_pad [2:0] $end
$var parameter 32 g" a_bw $end
$var parameter 32 h" b_bw $end
$var parameter 33 i" out_bw $end
$upscope $end
$upscope $end
$upscope $end
$scope begin col_num[1] $end
$var parameter 2 j" i $end
$scope module mac_tile_instance $end
$var wire 1 ( clk $end
$var wire 32 k" in_n [31:0] $end
$var wire 2 l" in_w0 [1:0] $end
$var wire 2 m" in_w1 [1:0] $end
$var wire 3 n" inst_e [2:0] $end
$var wire 3 o" inst_w [2:0] $end
$var wire 2 p" out_e0 [1:0] $end
$var wire 2 q" out_e1 [1:0] $end
$var wire 1 - reset $end
$var wire 32 r" out_s [31:0] $end
$var wire 6 s" mult_output1 [5:0] $end
$var wire 6 t" mult_output0 [5:0] $end
$var parameter 32 u" b_bw $end
$var parameter 32 v" bw $end
$var parameter 32 w" psum_bw $end
$var reg 2 x" a_q0 [1:0] $end
$var reg 2 y" a_q1 [1:0] $end
$var reg 4 z" b_q0 [3:0] $end
$var reg 4 {" b_q1 [3:0] $end
$var reg 32 |" c_q [31:0] $end
$var reg 3 }" inst_q [2:0] $end
$var reg 2 ~" load_ready_q [1:0] $end
$scope module mult_instance0 $end
$var wire 2 !# a [1:0] $end
$var wire 4 "# b [3:0] $end
$var wire 6 ## out [5:0] $end
$var wire 6 $# product [5:0] $end
$var wire 3 %# a_pad [2:0] $end
$var parameter 32 &# a_bw $end
$var parameter 32 '# b_bw $end
$var parameter 33 (# out_bw $end
$upscope $end
$scope module mult_instance1 $end
$var wire 2 )# a [1:0] $end
$var wire 4 *# b [3:0] $end
$var wire 6 +# out [5:0] $end
$var wire 6 ,# product [5:0] $end
$var wire 3 -# a_pad [2:0] $end
$var parameter 32 .# a_bw $end
$var parameter 32 /# b_bw $end
$var parameter 33 0# out_bw $end
$upscope $end
$upscope $end
$upscope $end
$upscope $end
$upscope $end
$upscope $end
$upscope $end
$enddefinitions $end
$comment Show the parameter values. $end
$dumpall
b110 0#
b100 /#
b10 .#
b110 (#
b100 '#
b10 &#
b100000 w"
b10 v"
b100 u"
b1 j"
b110 i"
b100 h"
b10 g"
b110 a"
b100 `"
b10 _"
b100000 R"
b10 Q"
b100 P"
b0 E"
b100000 D"
b10 C"
b10 B"
b100 A"
b1 7"
b110 6"
b100 5"
b10 4"
b110 ."
b100 -"
b10 ,"
b100000 }
b10 |
b100 {
b1 p
b110 o
b100 n
b10 m
b110 g
b100 f
b10 e
b100000 X
b10 W
b100 V
b0 K
b100000 J
b10 I
b10 H
b100 G
b0 =
b10 ;
b100000 :
b10 9
b10 8
b100 7
b10 '
b100000 &
b10 %
b10 $
b100 #
$end
#0
$dumpvars
b0xx -#
bx ,#
bx +#
bx *#
bx )#
b0xx %#
bx $#
bx ##
bx "#
bx !#
bx ~"
bx }"
bx |"
bx {"
bx z"
bx y"
bx x"
bx t"
bx s"
bx r"
bx q"
bx p"
bx o"
bx n"
bx m"
bx l"
bx k"
b0xx f"
bx e"
bx d"
bx c"
bx b"
b0xx ^"
bx ]"
bx \"
bx ["
bx Z"
bx Y"
bx X"
bx W"
bx V"
bx U"
bx T"
bx S"
bx O"
bx N"
bx M"
bx L"
bx K"
bx J"
bx I"
b0 H"
b0 G"
bx F"
bx @"
bx ?"
bx00 >"
bx00 ="
bx <"
bx ;"
b0 :"
b0 9"
bx 8"
b0xx 3"
bx 2"
bx 1"
bx 0"
bx /"
b0xx +"
bx *"
bx )"
bx ("
bx '"
bx &"
bx %"
bx $"
bx #"
bx ""
bx !"
bx ~
bx z
bx y
bx x
bx w
bx v
bx u
bx t
bx s
bx r
b0 q
b0xx l
bx k
bx j
bx i
bx h
b0xx d
bx c
bx b
bx a
bx `
bx _
bx ^
bx ]
bx \
bx [
bx Z
bx Y
bx U
bx T
bx S
bx R
bx Q
bx P
bx O
b0 N
b0 M
b0 L
bx F
bx E
bx00 D
bx00 C
bx B
bx A
b0 @
b0 ?
b0 >
bx <
bx 6
bx0000000000000000000000000000000000000000000000000000000000000000 5
bx 4
bx 3
b0 2
b0 1
b0 0
bx /
bx .
1-
bx ,
b0 +
b0 *
b0 )
0(
bx "
bx !
$end
#5
b0 !
b0 3
b0 P
b0 u
b0 B
b0 o"
b0 4
b0 <"
b0 A
b11 _
b0 O
b0 ^
b11 &"
b0 F
b0 t
b0 %"
b11 Y"
b0 I"
b0 X"
b11 ~"
b0xxx @"
b0 n"
b0 }"
bx000 <
b10 /
1(
#10
b0 .
0(
b1 +
b1 2
0-
#15
b0 J"
b1 P
b0x !
b0x 3
b0 ;"
b1 F
b1 A
b0 m"
bx0 o"
b0x00 4
b0x <"
b0 s
b1 <
b0 f"
bx0000 ="
b0 L"
b0 T"
b0 b"
b0xx0000 @"
bx0 I"
bx0 X"
b0 $"
b0 l
bx0000 C
b0 R
b0 Z
b0 h
b0 ]
b10 /
1(
#20
b0x .
b11 M
b1 N
bx11 D
b11 ?
bx0001 C
b1 @
0(
b111 *
b111 1
#25
bx0 !
bx0 3
b1 J"
b1 s
b11 r
b0 o"
bx000 4
bx0 <"
b1 ;"
b10 _
b10101 U
b10101 b
b10101 c
b111 [
b111 a
b1 l
b1 R
b1 Z
b1 h
b11 d
bx1111 D
b11 Q
b11 Y
b11 `
b0 3"
b101 C
b0 w
b0 !"
b0 /"
b0 I"
b0 X"
b0 -#
b0 ="
b0 q"
b0 y"
b0 )#
bx0000001 @"
bx0 n"
bx0 }"
b1001 <
b10 /
1(
#30
bx0 .
b10 M
b1 G"
b1 H"
bx1110 D
b10 ?
bx01 >"
b1 9"
b1 ="
b1 :"
0(
b1010110 *
b1010110 1
#35
b10100 F"
bx00000000000000000000000000010100 8"
b0 !
b0 3
bx000000000000000000000000000101000000000000000000000000000000000000000000000000000000000000000000 5
bx00000000000000000000000000010100 E
b10100 S
b0 4
b0 <"
b1 m"
b1 l"
b10 r
b1 @"
b0 n"
b0 }"
b10 Y"
b101 O"
b101 \"
b101 ]"
b101 U"
b101 ["
b1 f"
b101 ="
b1 L"
b1 T"
b1 b"
b1 ^"
bx0101 >"
b1 K"
b1 S"
b1 Z"
b1 3"
b10101 C
b1 w
b1 !"
b1 /"
b0 _
b110 T
b110 j
b110 k
b110 \
b110 i
b1110 U
b1110 b
b1110 c
b10 d
bx1010 D
b10 Q
b10 Y
b10 `
b10 /
1(
#40
b0 .
b11 M
b10 N
b0 G"
bx1011 D
b11 ?
b10110 C
b10 @
bx0100 >"
b0 9"
0(
b1001011 *
b1001011 1
#45
b100001 F"
bx00000000000000000000000000011000 "
bx00000000000000000000000000011000 6
bx00000000000000000000000000100001 8"
bx00000000000000000000000000011000 ?"
b11000 M"
b1 u
b10 s
bx00000000000000000000000000011000xxxxxxxxxxxxxxxxxxxxxxxxxxxxxxxx000000000000000000000000001000010000000000000000000000000000000000000000000000000000000000000000 5
bx00000000000000000000000000100001 E
b100001 S
b11 r
b0 l"
b1001 F
b1 O
b1 ^
b1100 T
b1100 j
b1100 k
b10 l
b11010 C
b10 R
b10 Z
b10 h
b10101 U
b10101 b
b10101 c
b11 d
bx1111 D
b11 Q
b11 Y
b11 `
b0 Y"
b100 N"
b100 d"
b100 e"
b100 V"
b100 c"
b0 O"
b0 \"
b0 ]"
b0 ^"
bx0000 >"
b0 K"
b0 S"
b0 Z"
b10100 W"
b1 -#
b10101 ="
b1 q"
b1 y"
b1 )#
b10 /
1(
#50
bx00000000000000000000000000011000 ,
b10 M
b1 G"
b10 H"
bx1110 D
b10 ?
bx0001 >"
b1 9"
b10110 ="
b10 :"
0(
b10011010 *
b10011010 1
#55
b11010 F"
bx00000000000000000000000000101110 "
bx00000000000000000000000000101110 6
bx00000000000000000000000000011010 8"
b1 o"
b10 m"
b1 l"
bx00000000000000000000000000101110 ?"
b101110 M"
bx00000000000000000000000000101110xxxxxxxxxxxxxxxxxxxxxxxxxxxxxxxx000000000000000000000000000110100000000000000000000000000000000000000000000000000000000000000000 5
bx00000000000000000000000000011010 E
b11010 S
b10 r
b1001 @"
b1 I"
b1 X"
b1000 N"
b1000 d"
b1000 e"
b10 f"
b11010 ="
b10 L"
b10 T"
b10 b"
b101 O"
b101 \"
b101 ]"
b1 ^"
bx0101 >"
b1 K"
b1 S"
b1 Z"
b100001 W"
b10 &"
b110001 z
b110001 )"
b110001 *"
b1011 ""
b1011 ("
b10 3"
b101010 C
b10 w
b10 !"
b10 /"
b11 +"
b11 v
b11 ~
b11 '"
b1110 U
b1110 b
b1110 c
b10 d
b111010 D
b10 Q
b10 Y
b10 `
b10 /
1(
#60
bx00000000000000000000000000101110 ,
b0 M
b0 N
b0 G"
b111000 D
b0 ?
b101000 C
b0 @
bx0100 >"
b0 9"
0(
b10000000 *
b10000000 1
#65
b0 F"
b11111111111111111111111111101010 k"
b1111111111111111111111111110101000000000000000000000000000000000 8"
b11111111111111111111111111101010 x
bx00000000000000000000000000100010 "
bx00000000000000000000000000100010 6
b0 s
b1111111111111111111111111110101000000000000000000000000000000000 E
b0 S
b0 r
b0 l"
bx0000000000000000000000000010001011111111111111111111111111101010000000000000000000000000000000000000000000000000000000000000000000000000000000000000000000000000 5
bx00000000000000000000000000100010 ?"
b100010 M"
b0 T
b0 j
b0 k
b0 l
b100000 C
b0 R
b0 Z
b0 h
b0 U
b0 b
b0 c
b0 d
b0 Q
b0 Y
b0 `
b0 &"
b110100 y
b110100 1"
b110100 2"
b1010 #"
b1010 0"
b110110 z
b110110 )"
b110110 *"
b10 +"
b100000 D
b10 v
b10 ~
b10 '"
b0 O"
b0 \"
b0 ]"
b0 ^"
b0 K"
b0 S"
b0 Z"
b11010 W"
b10 ~"
b111001 t"
b111001 ##
b111001 $#
b1001 z"
b1001 "#
b10 -#
b101010 ="
b10 q"
b10 y"
b10 )#
b1 %#
b10000 >"
b1 p"
b1 x"
b1 !#
b10 /
1(
#70
bx00000000000000000000000000100010 ,
0(
#75
b0 k"
b11111111111111111111111111011010 r"
b1111111111111111111111111101101000000000000000000000000000001000 "
b1111111111111111111111111101101000000000000000000000000000001000 6
b0 8"
b1111111111111111111111111101101000000000000000000000000000001000 ?"
b1000 M"
b111111111111111111111111110110100000000000000000000000000000100000000000000000000000000000000000000000000000000000000000000000000000000000000000000000000000000000000000000000000000000000000000 5
b0 E
b0 x
b0 ~"
b110000 s"
b110000 +#
b110000 ,#
b1000 {"
b1000 *#
b0 t"
b0 ##
b0 $#
b0 %#
b0 >"
b0 p"
b0 x"
b0 !#
b11111111111111111111111111101010 |"
b0 W"
b1001001 F
b1 t
b1 %"
b0 y
b0 1"
b0 2"
b0 3"
b0 C
b0 w
b0 !"
b0 /"
b0 z
b0 )"
b0 *"
b0 +"
b0 D
b0 v
b0 ~
b0 '"
b10 /
1(
#80
b1111111111111111111111111101101000000000000000000000000000001000 ,
0(
b10 +
b10 2
#85
b1111111111111111111111111111000000000000000000000000000000001000 "
b1111111111111111111111111111000000000000000000000000000000001000 6
b10 P
b111111111111111111111111111100000000000000000000000000000000100000000000000000000000000000000000000000000000000000000000000000000000000000000000000000000000000000000000000000000000000000000000 5
b1111111111111111111111111111000000000000000000000000000000001000 ?"
b11111111111111111111111111110000 r"
b1001010 F
b10 A
b1001001 @"
b1 n"
b1 }"
b0 |"
b1010 <
b10 /
1(
#90
b1111111111111111111111111111000000000000000000000000000000001000 ,
b11 M
b11 N
b0 H"
b11 D
b11 ?
b11 C
b11 @
b101000 ="
b0 :"
0(
b1111 *
b1111 1
b0 +
b0 2
#95
b100111 F"
b10 J"
b0 P
b1111111111111111111111111111000000000000000000000000000000000000 "
b1111111111111111111111111111000000000000000000000000000000000000 6
b100111 8"
b1001010 @"
b10 ;"
b0 A
b1111111111111111111111111111000000000000000000000000000000000000 ?"
b0 M"
b0 m"
b11 s
b111111111111111111111111111100000000000000000000000000000000000000000000000000000000000000000000000000000000000000000000001001110000000000000000000000000000000000000000000000000000000000000000 5
b100111 E
b100111 S
b11 r
b10 u
b1 4
b1 B
b10000 <
b0 N"
b0 d"
b0 e"
b0 f"
b100000 ="
b0 L"
b0 T"
b0 b"
b10010 T
b10010 j
b10010 k
b11 l
b1111 C
b11 R
b11 Z
b11 h
b10101 U
b10101 b
b10101 c
b11 d
b1111 D
b11 Q
b11 Y
b11 `
b1010000 F
b10 O
b10 ^
b10 /
1(
#100
b1111111111111111111111111111000000000000000000000000000000000000 ,
b0 M
b0 N
b11 G"
b11 H"
b1100 D
b0 ?
b1100 C
b0 @
b11 >"
b11 9"
b100011 ="
b11 :"
0(
b11110000 *
b11110000 1
#105
b10101 F"
b11111111111111111111111111011111 k"
b1111111111111111111111111101111100000000000000000000000000010101 8"
b1 !
b1 3
b1000010 "
b1000010 6
b0 J"
b10101 S
b0 s
b0 u
b1111111111111111111111111101111100000000000000000000000000010101 E
b11111111111111111111111111011111 x
b10 B
b11 m"
b11 l"
b1000010 M"
b10 o"
b110 4
b1 <"
b100001011111111111111111111111111011111000000000000000000000000000101010000000000000000000000000000000000000000000000000000000000000000 5
b1000010 ?"
b0 r"
b0 ;"
b0 T
b0 j
b0 k
b0 l
b0 R
b0 Z
b0 h
b0 O
b0 ^
b101110 y
b101110 1"
b101110 2"
b11 3"
b110000 C
b11 w
b11 !"
b11 /"
b110001 z
b110001 )"
b110001 *"
b11 +"
b111100 D
b11 v
b11 ~
b11 '"
b10000000 F
b10 t
b10 %"
b1100 N"
b1100 d"
b1100 e"
b11 f"
b11 L"
b11 T"
b11 b"
b1111 O"
b1111 \"
b1111 ]"
b11 ^"
b1111 >"
b11 K"
b11 S"
b11 Z"
b100111 W"
b1010000 @"
b10 I"
b10 X"
b0 s"
b0 +#
b0 ,#
b0 -#
b1111 ="
b0 q"
b0 y"
b0 )#
b0 <
b10 /
1(
#110
b1 .
b1000010 ,
0(
#115
b11111111111111111111111111110001 k"
b1111111111111111111111111011001000000000000000000000000000110000 "
b1111111111111111111111111011001000000000000000000000000000110000 6
b10 !
b10 3
b1111111111111111111111111111000100000000000000000000000000010101 8"
b11111111111111111111111110110010 r"
b1111111111111111111111111011001000000000000000000000000000110000 ?"
b110000 M"
b0 o"
b10 <"
b111111111111111111111111101100100000000000000000000000000011000011111111111111111111111111110001000000000000000000000000000101010000000000000000000000000000000000000000000000000000000000000000 5
b1111111111111111111111111111000100000000000000000000000000010101 E
b11111111111111111111111111110001 x
b1000 4
b0 B
b101000 s"
b101000 +#
b101000 ,#
b11 -#
b111111 ="
b11 q"
b11 y"
b11 )#
b101011 t"
b101011 ##
b101011 $#
b11 %#
b111111 >"
b11 p"
b11 x"
b11 !#
b11111111111111111111111111011111 |"
b10 n"
b10 }"
b10101 W"
b10000000 @"
b0 I"
b0 X"
b0 y
b0 1"
b0 2"
b0 3"
b0 C
b0 w
b0 !"
b0 /"
b0 F
b0 t
b0 %"
b10 /
1(
#120
b10 .
b1111111111111111111111111011001000000000000000000000000000110000 ,
0(
#125
b1111111111111111111111111100010000000000000000000000000000110000 "
b1111111111111111111111111100010000000000000000000000000000110000 6
b0 !
b0 3
b111111111111111111111111110001000000000000000000000000000011000011111111111111111111111111110001000000000000000000000000000101010000000000000000000000000000000000000000000000000000000000000000 5
b1111111111111111111111111100010000000000000000000000000000110000 ?"
b11111111111111111111111111000100 r"
b0 4
b0 <"
b11111111111111111111111111110001 |"
b0 @"
b0 n"
b0 }"
b10 /
1(
#130
b0 .
b1111111111111111111111111100010000000000000000000000000000110000 ,
0(
1-
#135
b11 ~"
b11 Y"
b11 &"
b11 _
b10 /
1(
#140
0(
b101 +
b101 2
0-
#145
b101 P
b101 F
b101 A
b101 <
b10 /
1(
#150
b11 M
b1 N
b0 G"
b0 H"
b111111 D
b11 ?
b1 C
b1 @
b111100 >"
b0 9"
b111100 ="
b0 :"
0(
b111 *
b111 1
#155
b110001 F"
b101 J"
b1111111111111111111111111100010000000000000000000000000000100100 "
b1111111111111111111111111100010000000000000000000000000000100100 6
b1111111111111111111111111111000100000000000000000000000000110001 8"
b101 @"
b101 ;"
b1111111111111111111111111100010000000000000000000000000000100100 ?"
b100100 M"
b0 m"
b111111111111111111111111110001000000000000000000000000000010010011111111111111111111111111110001000000000000000000000000001100010000000000000000000000000000000000000000000000000000000000000000 5
b1111111111111111111111111111000100000000000000000000000000110001 E
b110001 S
b1 s
b100 u
b101101 <
b0 N"
b0 d"
b0 e"
b0 f"
b110000 ="
b0 L"
b0 T"
b0 b"
b0 _
b111 \
b111 i
b111 T
b111 j
b111 k
b1 l
b101 C
b1 R
b1 Z
b1 h
b100101 F
b100 O
b100 ^
b10 /
1(
#160
b1111111111111111111111111100010000000000000000000000000000100100 ,
b10 N
b1 G"
b1 H"
b110 C
b10 @
b111101 >"
b1 9"
b110001 ="
b1 :"
0(
b1011011 *
b1011011 1
#165
b1001101 F"
b11111111111111111111111111011001 k"
b1111111111111111111111111101100100000000000000000000000001001101 8"
b1111111111111111111111111101110000000000000000000000000001001010 "
b1111111111111111111111111101110000000000000000000000000001001010 6
b101 u
b1001101 S
b10 s
b1111111111111111111111111101100100000000000000000000000001001101 E
b11111111111111111111111111011001 x
b1 m"
b1 l"
b1001010 M"
b100 o"
b111111111111111111111111110111000000000000000000000000000100101011111111111111111111111111011001000000000000000000000000010011010000000000000000000000000000000000000000000000000000000000000000 5
b1111111111111111111111111101110000000000000000000000000001001010 ?"
b11111111111111111111111111011100 r"
b101 O
b101 ^
b1110 T
b1110 j
b1110 k
b10 l
b10 R
b10 Z
b10 h
b111010 y
b111010 1"
b111010 2"
b1 3"
b11010 C
b1 w
b1 !"
b1 /"
b100101101 F
b100 t
b100 %"
b0 Y"
b101 V"
b101 c"
b101 N"
b101 d"
b101 e"
b1 f"
b1 L"
b1 T"
b1 b"
b101 O"
b101 \"
b101 ]"
b1 ^"
b110101 >"
b1 K"
b1 S"
b1 Z"
b110001 W"
b100101 @"
b100 I"
b100 X"
b0 s"
b0 +#
b0 ,#
b0 -#
b101 ="
b0 q"
b0 y"
b0 )#
b10 /
1(
#170
b1111111111111111111111111101110000000000000000000000000001001010 ,
b0 M
b0 N
b10 H"
b111100 D
b0 ?
b11000 C
b0 @
b110 ="
b10 :"
0(
b110 +
b110 2
b10010000 *
b10010000 1
#175
b0 F"
b11111111111111111111111111001001 k"
b110 P
b1111111111111111111111111010010000000000000000000000000001111010 "
b1111111111111111111111111010010000000000000000000000000001111010 6
b1111111111111111111111111100100100000000000000000000000000000000 8"
b100101110 F
b110 A
b11111111111111111111111110100100 r"
b101 o"
b10 m"
b1111111111111111111111111010010000000000000000000000000001111010 ?"
b1111010 M"
b11111111111111111111111111001001 x
b0 s
b111111111111111111111111101001000000000000000000000000000111101011111111111111111111111111001001000000000000000000000000000000000000000000000000000000000000000000000000000000000000000000000000 5
b1111111111111111111111111100100100000000000000000000000000000000 E
b0 S
b0 r
b101110 <
b111000 s"
b111000 +#
b111000 ,#
b1 -#
b1 q"
b1 y"
b1 )#
b11111111111111111111111111011001 |"
b100 n"
b100 }"
b100101101 @"
b101 I"
b101 X"
b1010 N"
b1010 d"
b1010 e"
b10 f"
b11010 ="
b10 L"
b10 T"
b10 b"
b1001101 W"
b0 &"
b1011 #"
b1011 0"
b110110 y
b110110 1"
b110110 2"
b10 3"
b10 w
b10 !"
b10 /"
b0 T
b0 j
b0 k
b0 l
b100000 C
b0 R
b0 Z
b0 h
b0 U
b0 b
b0 c
b0 d
b110000 D
b0 Q
b0 Y
b0 `
b10 /
1(
#180
b1111111111111111111111111010010000000000000000000000000001111010 ,
b11 M
b11 N
b0 G"
b0 H"
b110011 D
b11 ?
b100011 C
b11 @
b110100 >"
b0 9"
b11000 ="
b0 :"
0(
b1111 *
b1111 1
b100 +
b100 2
#185
b1101001 F"
b0 k"
b1101001 8"
b1111111111111111111111111000101000000000000000000000000000000000 "
b1111111111111111111111111000101000000000000000000000000000000000 6
b110 J"
b100 P
b11 s
b1101001 S
b11 r
b110 u
b1 4
b1 B
b1101001 E
b0 x
b0 m"
b0 l"
b0 M"
b111111111111111111111111100010100000000000000000000000000000000000000000000000000000000000000000000000000000000000000000011010010000000000000000000000000000000000000000000000000000000000000000 5
b1111111111111111111111111000101000000000000000000000000000000000 ?"
b11111111111111111111111110001010 r"
b100101110 @"
b110 ;"
b100 A
b10101 T
b10101 j
b10101 k
b11 l
b11 R
b11 Z
b11 h
b10101 U
b10101 b
b10101 c
b11 d
b11 Q
b11 Y
b11 `
b110 O
b110 ^
b101110100 F
b101 t
b101 %"
b0 y
b0 1"
b0 2"
b0 3"
b1111 C
b0 w
b0 !"
b0 /"
b0 z
b0 )"
b0 *"
b0 +"
b1111 D
b0 v
b0 ~
b0 '"
b0 N"
b0 d"
b0 e"
b0 f"
b0 L"
b0 T"
b0 b"
b0 O"
b0 \"
b0 ]"
b0 ^"
b0 K"
b0 S"
b0 Z"
b0 W"
b0 ~"
b1001 {"
b1001 *#
b110010 s"
b110010 +#
b110010 ,#
b10 -#
b100000 ="
b10 q"
b10 y"
b10 )#
b111001 t"
b111001 ##
b111001 $#
b1 %#
b10000 >"
b1 p"
b1 x"
b1 !#
b11111111111111111111111111001001 |"
b110100 <
b10 /
1(
#190
b1111111111111111111111111000101000000000000000000000000000000000 ,
b0 M
b0 N
b11 G"
b11 H"
b1100 D
b0 ?
b1100 C
b0 @
b10011 >"
b11 9"
b100011 ="
b11 :"
0(
b11110000 *
b11110000 1
