legacy/mac_row_tb.vcd
$date
	Thu Nov 27 01:42:58 2025
$end
$version
	Icarus Verilog
$end
$timescale
	1s
$end
$scope module mac_row_tb $end
$var wire 128 ! out_s [127:0] $end
$var parameter 32 " b_bw $end
$var parameter 32 # bw $end
$var parameter 32 $ col $end
$var parameter 32 % psum_bw $end
$var reg 1 & clk $end
$var reg 128 ' in_n [127:0] $end
$var reg 2 ( in_w0 [1:0] $end
$var reg 2 ) in_w1 [1:0] $end
$var reg 3 * inst_w [2:0] $end
$var reg 128 + out_display [127:0] $end
$var reg 1 , reset $end
$var integer 32 - i [31:0] $end
$var integer 32 . j [31:0] $end
$scope module uut $end
$var wire 1 & clk $end
$var wire 128 / in_n [127:0] $end
$var wire 2 0 in_w0 [1:0] $end
$var wire 2 1 in_w1 [1:0] $end
$var wire 3 2 inst_w [2:0] $end
$var wire 1 , reset $end
$var wire 4 3 valid [3:0] $end
$var wire 10 4 temp1 [9:0] $end
$var wire 10 5 temp0 [9:0] $end
$var wire 128 6 out_s [127:0] $end
$var wire 15 7 inst [14:0] $end
$var parameter 32 8 b_bw $end
$var parameter 32 9 bw $end
$var parameter 32 : col $end
$var parameter 32 ; psum_bw $end
$scope begin col_num[0] $end
$var parameter 2 < i $end
$scope module mac_tile_instance $end
$var wire 1 & clk $end
$var wire 32 = in_n [31:0] $end
$var wire 2 > in_w0 [1:0] $end
$var wire 2 ? in_w1 [1:0] $end
$var wire 3 @ inst_e [2:0] $end
$var wire 3 A inst_w [2:0] $end
$var wire 2 B out_e0 [1:0] $end
$var wire 2 C out_e1 [1:0] $end
$var wire 1 , reset $end
$var wire 32 D out_s [31:0] $end
$var wire 6 E mult_output1 [5:0] $end
$var wire 6 F mult_output0 [5:0] $end
$var parameter 32 G b_bw $end
$var parameter 32 H bw $end
$var parameter 32 I psum_bw $end
$var reg 2 J a_q0 [1:0] $end
$var reg 2 K a_q1 [1:0] $end
$var reg 4 L b_q0 [3:0] $end
$var reg 4 M b_q1 [3:0] $end
$var reg 32 N c_q [31:0] $end
$var reg 3 O inst_q [2:0] $end
$var reg 2 P load_ready_q [1:0] $end
$scope module mult_instance0 $end
$var wire 2 Q a [1:0] $end
$var wire 4 R b [3:0] $end
$var wire 6 S out [5:0] $end
$var wire 6 T product [5:0] $end
$var wire 3 U a_pad [2:0] $end
$var parameter 32 V a_bw $end
$var parameter 32 W b_bw $end
$var parameter 33 X out_bw $end
$upscope $end
$scope module mult_instance1 $end
$var wire 2 Y a [1:0] $end
$var wire 4 Z b [3:0] $end
$var wire 6 [ out [5:0] $end
$var wire 6 \ product [5:0] $end
$var wire 3 ] a_pad [2:0] $end
$var parameter 32 ^ a_bw $end
$var parameter 32 _ b_bw $end
$var parameter 33 ` out_bw $end
$upscope $end
$upscope $end
$upscope $end
$scope begin col_num[1] $end
$var parameter 2 a i $end
$scope module mac_tile_instance $end
$var wire 1 & clk $end
$var wire 32 b in_n [31:0] $end
$var wire 2 c in_w0 [1:0] $end
$var wire 2 d in_w1 [1:0] $end
$var wire 3 e inst_e [2:0] $end
$var wire 3 f inst_w [2:0] $end
$var wire 2 g out_e0 [1:0] $end
$var wire 2 h out_e1 [1:0] $end
$var wire 1 , reset $end
$var wire 32 i out_s [31:0] $end
$var wire 6 j mult_output1 [5:0] $end
$var wire 6 k mult_output0 [5:0] $end
$var parameter 32 l b_bw $end
$var parameter 32 m bw $end
$var parameter 32 n psum_bw $end
$var reg 2 o a_q0 [1:0] $end
$var reg 2 p a_q1 [1:0] $end
$var reg 4 q b_q0 [3:0] $end
$var reg 4 r b_q1 [3:0] $end
$var reg 32 s c_q [31:0] $end
$var reg 3 t inst_q [2:0] $end
$var reg 2 u load_ready_q [1:0] $end
$scope module mult_instance0 $end
$var wire 2 v a [1:0] $end
$var wire 4 w b [3:0] $end
$var wire 6 x out [5:0] $end
$var wire 6 y product [5:0] $end
$var wire 3 z a_pad [2:0] $end
$var parameter 32 { a_bw $end
$var parameter 32 | b_bw $end
$var parameter 33 } out_bw $end
$upscope $end
$scope module mult_instance1 $end
$var wire 2 ~ a [1:0] $end
$var wire 4 !" b [3:0] $end
$var wire 6 "" out [5:0] $end
$var wire 6 #" product [5:0] $end
$var wire 3 $" a_pad [2:0] $end
$var parameter 32 %" a_bw $end
$var parameter 32 &" b_bw $end
$var parameter 33 '" out_bw $end
$upscope $end
$upscope $end
$upscope $end
$scope begin col_num[2] $end
$var parameter 3 (" i $end
$scope module mac_tile_instance $end
$var wire 1 & clk $end
$var wire 32 )" in_n [31:0] $end
$var wire 2 *" in_w0 [1:0] $end
$var wire 2 +" in_w1 [1:0] $end
$var wire 3 ," inst_e [2:0] $end
$var wire 3 -" inst_w [2:0] $end
$var wire 2 ." out_e0 [1:0] $end
$var wire 2 /" out_e1 [1:0] $end
$var wire 1 , reset $end
$var wire 32 0" out_s [31:0] $end
$var wire 6 1" mult_output1 [5:0] $end
$var wire 6 2" mult_output0 [5:0] $end
$var parameter 32 3" b_bw $end
$var parameter 32 4" bw $end
$var parameter 32 5" psum_bw $end
$var reg 2 6" a_q0 [1:0] $end
$var reg 2 7" a_q1 [1:0] $end
$var reg 4 8" b_q0 [3:0] $end
$var reg 4 9" b_q1 [3:0] $end
$var reg 32 :" c_q [31:0] $end
$var reg 3 ;" inst_q [2:0] $end
$var reg 2 <" load_ready_q [1:0] $end
$scope module mult_instance0 $end
$var wire 2 =" a [1:0] $end
$var wire 4 >" b [3:0] $end
$var wire 6 ?" out [5:0] $end
$var wire 6 @" product [5:0] $end
$var wire 3 A" a_pad [2:0] $end
$var parameter 32 B" a_bw $end
$var parameter 32 C" b_bw $end
$var parameter 33 D" out_bw $end
$upscope $end
$scope module mult_instance1 $end
$var wire 2 E" a [1:0] $end
$var wire 4 F" b [3:0] $end
$var wire 6 G" out [5:0] $end
$var wire 6 H" product [5:0] $end
$var wire 3 I" a_pad [2:0] $end
$var parameter 32 J" a_bw $end
$var parameter 32 K" b_bw $end
$var parameter 33 L" out_bw $end
$upscope $end
$upscope $end
$upscope $end
$scope begin col_num[3] $end
$var parameter 3 M" i $end
$scope module mac_tile_instance $end
$var wire 1 & clk $end
$var wire 32 N" in_n [31:0] $end
$var wire 2 O" in_w0 [1:0] $end
$var wire 2 P" in_w1 [1:0] $end
$var wire 3 Q" inst_e [2:0] $end
$var wire 3 R" inst_w [2:0] $end
$var wire 2 S" out_e0 [1:0] $end
$var wire 2 T" out_e1 [1:0] $end
$var wire 1 , reset $end
$var wire 32 U" out_s [31:0] $end
$var wire 6 V" mult_output1 [5:0] $end
$var wire 6 W" mult_output0 [5:0] $end
$var parameter 32 X" b_bw $end
$var parameter 32 Y" bw $end
$var parameter 32 Z" psum_bw $end
$var reg 2 [" a_q0 [1:0] $end
$var reg 2 \" a_q1 [1:0] $end
$var reg 4 ]" b_q0 [3:0] $end
$var reg 4 ^" b_q1 [3:0] $end
$var reg 32 _" c_q [31:0] $end
$var reg 3 `" inst_q [2:0] $end
$var reg 2 a" load_ready_q [1:0] $end
$scope module mult_instance0 $end
$var wire 2 b" a [1:0] $end
$var wire 4 c" b [3:0] $end
$var wire 6 d" out [5:0] $end
$var wire 6 e" product [5:0] $end
$var wire 3 f" a_pad [2:0] $end
$var parameter 32 g" a_bw $end
$var parameter 32 h" b_bw $end
$var parameter 33 i" out_bw $end
$upscope $end
$scope module mult_instance1 $end
$var wire 2 j" a [1:0] $end
$var wire 4 k" b [3:0] $end
$var wire 6 l" out [5:0] $end
$var wire 6 m" product [5:0] $end
$var wire 3 n" a_pad [2:0] $end
$var parameter 32 o" a_bw $end
$var parameter 32 p" b_bw $end
$var parameter 33 q" out_bw $end
$upscope $end
$upscope $end
$upscope $end
$upscope $end
$upscope $end
$enddefinitions $end
$comment Show the parameter values. $end
$dumpall
b110 q"
b100 p"
b10 o"
b110 i"
b100 h"
b10 g"
b100000 Z"
b10 Y"
b100 X"
b11 M"
b110 L"
b100 K"
b10 J"
b110 D"
b100 C"
b10 B"
b100000 5"
b10 4"
b100 3"
b10 ("
b110 '"
b100 &"
b10 %"
b110 }
b100 |
b10 {
b100000 n
b10 m
b100 l
b1 a
b110 `
b100 _
b10 ^
b110 X
b100 W
b10 V
b100000 I
b10 H
b100 G
b0 <
b100000 ;
b100 :
b10 9
b100 8
b100000 %
b100 $
b10 #
b100 "
$end
#0
$dumpvars
b0xx n"
bx m"
bx l"
bx k"
bx j"
b0xx f"
bx e"
bx d"
bx c"
bx b"
bx a"
bx `"
bx _"
bx ^"
bx ]"
bx \"
bx ["
bx W"
bx V"
bx U"
bx T"
bx S"
bx R"
bx Q"
bx P"
bx O"
b0 N"
b0xx I"
bx H"
bx G"
bx F"
bx E"
b0xx A"
bx @"
bx ?"
bx >"
bx ="
bx <"
bx ;"
bx :"
bx 9"
bx 8"
bx 7"
bx 6"
bx 2"
bx 1"
bx 0"
bx /"
bx ."
bx -"
bx ,"
bx +"
bx *"
b0 )"
b0xx $"
bx #"
bx ""
bx !"
bx ~
b0xx z
bx y
bx x
bx w
bx v
bx u
bx t
bx s
bx r
bx q
bx p
bx o
bx k
bx j
bx i
bx h
bx g
bx f
bx e
bx d
bx c
b0 b
b0xx ]
bx \
bx [
bx Z
bx Y
b0xx U
bx T
bx S
bx R
bx Q
bx P
bx O
bx N
bx M
bx L
bx K
bx J
bx F
bx E
bx D
bx C
bx B
b0 A
bx @
b0 ?
b0 >
b0 =
bx000 7
bx 6
bx00 5
bx00 4
bx 3
b0 2
b0 1
b0 0
b0 /
bx .
bx -
1,
bx +
b0 *
b0 )
b0 (
b0 '
0&
bx !
$end
#5
b0 f
b0 -"
b0 R"
b0 3
b11 P
b0 @
b0 O
b11 u
b0 e
b0 t
b11 <"
b0 ,"
b0 ;"
b11 a"
b0 7
b0 Q"
b0 `"
b100 .
1&
#10
b1 >
b1 A
0&
bx01 5
b1 (
b1 0
b1 7
b1 *
b1 2
0,
#15
b0 d
b1 c
b0 _"
b0 :"
b0 s
b10 P
b1 F
b1 S
b1 T
b1 L
b1 R
b0 ]
bx0000 4
b0 C
b0 K
b0 Y
b1 U
bx0101 5
b1 B
b1 J
b1 Q
b0 N
b100 .
1&
#20
b10 >
0&
bx0110 5
b10 (
b10 0
#25
bx00000000000000000000000000000010 !
bx00000000000000000000000000000010 6
b10 D
b10 c
b0 +"
b0 P
b0 E
b0 [
b0 \
b10 M
b10 Z
b10 F
b10 S
b10 T
b10 U
bx1010 5
b10 B
b10 J
b10 Q
b0 $"
bx000000 4
b0 h
b0 p
b0 ~
b100 .
1&
#30
bx00000000000000000000000000000010 +
b11 >
0&
bx1011 5
b11 (
b11 0
#35
b0 P"
b1 f
bx00000000000000000000000000000011 !
bx00000000000000000000000000000011 6
b11 D
b11 c
b0 I"
bx00000000 4
b0 /"
b0 7"
b0 E"
b1001 7
b1 @
b1 O
b11 F
b11 S
b11 T
b11 U
bx1111 5
b11 B
b11 J
b11 Q
b100 .
1&
#40
bx00000000000000000000000000000011 +
b10 ?
b0 >
0&
bx00000010 4
b10 )
b10 1
bx1100 5
b0 (
b0 0
#45
b10 d
bx00000000000000000000000000000100 !
bx00000000000000000000000000000100 6
b100 D
b0 c
b11 *"
b100 E
b100 [
b100 \
b10 ]
b10 C
b10 K
b10 Y
b0 F
b0 S
b0 T
b0 U
b0 B
b0 J
b0 Q
b10 u
b1001 k
b1001 x
b1001 y
b11 q
b11 w
b11 z
bx110000 5
b11 g
b11 o
b11 v
b0 n"
b1010 4
b0 T"
b0 \"
b0 j"
b100 .
1&
#50
bx00000000000000000000000000000100 +
0&
#55
bx1111111111111111111111111111000000000000000000000000000000000100 !
bx1111111111111111111111111111000000000000000000000000000000000100 6
b11111111111111111111111111110000 i
b10 +"
b0 *"
b0 u
b110000 j
b110000 ""
b110000 #"
b1000 r
b1000 !"
b10 $"
b101010 4
b10 h
b10 p
b10 ~
b0 k
b0 x
b0 y
b0 z
bx000000 5
b0 g
b0 o
b0 v
b100 .
1&
#60
bx1111111111111111111111111111000000000000000000000000000000000100 +
b0 ?
0&
b101000 4
b0 )
b0 1
#65
bx1111111111111111111111111111000000000000000000000000000000000000 !
bx1111111111111111111111111111000000000000000000000000000000000000 6
b0 D
b0 d
b1 -"
b10 P"
b0 E
b0 [
b0 \
b0 ]
b0 C
b0 K
b0 Y
b1001001 7
b1 e
b1 t
b10 I"
b10100000 4
b10 /"
b10 7"
b10 E"
b100 .
1&
#70
bx1111111111111111111111111111000000000000000000000000000000000000 +
b10 ?
b1 >
0&
b10100010 4
b10 )
b10 1
bx000001 5
b1 (
b1 0
#75
b0 O"
b0 i
b0 +"
b10 d
bx0000000000000000000000000000000000000000000000000000000000000101 !
bx0000000000000000000000000000000000000000000000000000000000000101 6
b101 D
b1 c
b10 n"
b10 T"
b10 \"
b10 j"
b10 <"
b0 2"
b0 ?"
b0 @"
b1000 8"
b1000 >"
b0 A"
b0 ."
b0 6"
b0 ="
b0 j
b0 ""
b0 #"
b0 $"
b0 h
b0 p
b0 ~
b100 E
b100 [
b100 \
b10 ]
b1010001010 4
b10 C
b10 K
b10 Y
b1 F
b1 S
b1 T
b1 U
bx00000101 5
b1 B
b1 J
b1 Q
b100 .
1&
#80
bx0000000000000000000000000000000000000000000000000000000000000101 +
b1 ?
b11 >
0&
b1010001001 4
b1 )
b1 1
bx00000111 5
b11 (
b11 0
#85
b0 0"
b1 d
b11 c
b10 +"
bx000000000000000000000000000000001111111111111111111111111111001100000000000000000000000000000101 !
bx000000000000000000000000000000001111111111111111111111111111001100000000000000000000000000000101 6
b11111111111111111111111111110011 i
b1 *"
b0 P"
b10 E
b10 [
b10 \
b1 ]
b1 C
b1 K
b1 Y
b11 F
b11 S
b11 T
b11 U
b11 B
b11 J
b11 Q
b110000 j
b110000 ""
b110000 #"
b10 $"
b10 h
b10 p
b10 ~
b11 k
b11 x
b11 y
b1 z
bx00011111 5
b1 g
b1 o
b1 v
b0 <"
b0 1"
b0 G"
b0 H"
b0 9"
b0 F"
b0 I"
b1000100101 4
b0 /"
b0 7"
b0 E"
b100 .
1&
#90
bx000000000000000000000000000000001111111111111111111111111111001100000000000000000000000000000101 +
b0 ?
b0 >
b10 A
0&
b1000100100 4
b0 )
b0 1
bx00011100 5
b0 (
b0 0
b0 -
b1001010 7
b10 *
b10 2
#95
b1 R"
b10 P"
b11111111111111111111111111111000 0"
b1 O"
b1 +"
b1 i
b11 *"
b0 d
bx111111111111111111111111111110000000000000000000000000000000000100000000000000000000000000000000 !
bx111111111111111111111111111110000000000000000000000000000000000100000000000000000000000000000000 6
b0 D
b0 c
b10 f
b1 3
b0 n"
b0 T"
b0 \"
b0 j"
b1 ,"
b1 ;"
b10 I"
b10 /"
b10 7"
b10 E"
b111000 2"
b111000 ?"
b111000 @"
b1 A"
b1 ."
b1 6"
b1 ="
b111000 j
b111000 ""
b111000 #"
b1 $"
b1 h
b1 p
b1 ~
b1001 k
b1001 x
b1001 y
b11 z
b11 g
b11 o
b11 v
b0 E
b0 [
b0 \
b0 ]
b10010000 4
b0 C
b0 K
b0 Y
b0 F
b0 S
b0 T
b0 U
bx01110000 5
b0 B
b0 J
b0 Q
b1001010010 7
b10 @
b10 O
b100 .
1&
#100
bx111111111111111111111111111110000000000000000000000000000000000100000000000000000000000000000000 +
b1 >
0&
bx01110001 5
b1 (
b1 0
b1 -
#105
b1 D
b1 c
b0 +"
b0 i
b0 *"
b10 -"
b11 3
b1 P"
bx111111111111111111111111111010000000000000000000000000000000000000000000000000000000000000000001 !
bx111111111111111111111111111010000000000000000000000000000000000000000000000000000000000000000001 6
b11111111111111111111111111101000 0"
b11 O"
b1 F
b1 S
b1 T
b1 U
b1 B
b1 J
b1 Q
b0 j
b0 ""
b0 #"
b0 $"
b0 h
b0 p
b0 ~
b0 k
b0 x
b0 y
b0 z
b0 g
b0 o
b0 v
b1010010010 7
b10 e
b10 t
b1 I"
b1 /"
b1 7"
b1 E"
b101000 2"
b101000 ?"
b101000 @"
b11 A"
b11 ."
b11 6"
b11 ="
b10 a"
b111001 W"
b111001 d"
b111001 e"
b1001 ]"
b1001 c"
b10 n"
b1001000000 4
b10 T"
b10 \"
b10 j"
b1 f"
b111000101 5
b1 S"
b1 ["
b1 b"
b100 .
1&
#110
bx111111111111111111111111111010000000000000000000000000000000000000000000000000000000000000000001 +
b10 >
0&
b111000110 5
b10 (
b10 0
b10 -
#115
b11111111111111111111111111110010 U"
b0 P"
b0 0"
b0 O"
b10 R"
b111 3
b11 i
b1 *"
b11111111111111111111111111110010000000000000000000000000000000000000000000000000000000000000001100000000000000000000000000000010 !
b11111111111111111111111111110010000000000000000000000000000000000000000000000000000000000000001100000000000000000000000000000010 6
b10 D
b10 c
b0 a"
b111 V"
b111 l"
b111 m"
b111 ^"
b111 k"
b1 n"
b1 T"
b1 \"
b1 j"
b101011 W"
b101011 d"
b101011 e"
b11 f"
b11 S"
b11 ["
b11 b"
b0 I"
b100000000 4
b0 /"
b0 7"
b0 E"
b0 2"
b0 ?"
b0 @"
b0 A"
b0 ."
b0 6"
b0 ="
b10010010010 7
b10 ,"
b10 ;"
b11 k
b11 x
b11 y
b1 z
b1 g
b1 o
b1 v
b10 F
b10 S
b10 T
b10 U
b1100011010 5
b10 B
b10 J
b10 Q
b100 .
1&
#120
b11111111111111111111111111110010000000000000000000000000000000000000000000000000000000000000001100000000000000000000000000000010 +
b11 >
0&
b1100011011 5
b11 (
b11 0
b11 -
#125
b11 D
b11 c
b110 i
b10 *"
b11111111111111111111111111111000 0"
b1 O"
b111111111111111111111111111110000000000000000000000000000000011000000000000000000000000000000011 !
b111111111111111111111111111110000000000000000000000000000000011000000000000000000000000000000011 6
b0 U"
b1111 3
b11 F
b11 S
b11 T
b11 U
b11 B
b11 J
b11 Q
b110 k
b110 x
b110 y
b10 z
b10 g
b10 o
b10 v
b111000 2"
b111000 ?"
b111000 @"
b1 A"
b1 ."
b1 6"
b1 ="
b0 V"
b0 l"
b0 m"
b0 n"
b0 4
b0 T"
b0 \"
b0 j"
b0 W"
b0 d"
b0 e"
b0 f"
b1101111 5
b0 S"
b0 ["
b0 b"
b10010010010010 7
b10 Q"
b10 `"
b100 .
1&
#130
b111111111111111111111111111110000000000000000000000000000000011000000000000000000000000000000011 +
b1 ?
b0 >
0&
b1 4
b1 )
b1 1
b1101100 5
b0 (
b0 0
b100 -
#135
b11111111111111111111111111111001 U"
b11111111111111111111111111110000 0"
b10 O"
b1001 i
b11 *"
b1 d
b11111111111111111111111111111001111111111111111111111111111100000000000000000000000000000000100100000000000000000000000000000010 !
b11111111111111111111111111111001111111111111111111111111111100000000000000000000000000000000100100000000000000000000000000000010 6
b10 D
b0 c
b111001 W"
b111001 d"
b111001 e"
b1 f"
b1 S"
b1 ["
b1 b"
b110000 2"
b110000 ?"
b110000 @"
b10 A"
b10 ."
b10 6"
b10 ="
b1001 k
b1001 x
b1001 y
b11 z
b11 g
b11 o
b11 v
b10 E
b10 [
b10 \
b1 ]
b101 4
b1 C
b1 K
b1 Y
b0 F
b0 S
b0 T
b0 U
b110110000 5
b0 B
b0 J
b0 Q
b100 .
1&
#140
b11111111111111111111111111111001111111111111111111111111111100000000000000000000000000000000100100000000000000000000000000000010 +
b1 >
0&
b110110001 5
b1 (
b1 0
b101 -
#145
b11 D
b1 c
b1 +"
b11111111111111111111111111111000 i
b0 *"
b11111111111111111111111111101000 0"
b11 O"
b11111111111111111111111111110010111111111111111111111111111010001111111111111111111111111111100000000000000000000000000000000011 !
b11111111111111111111111111110010111111111111111111111111111010001111111111111111111111111111100000000000000000000000000000000011 6
b11111111111111111111111111110010 U"
b1 F
b1 S
b1 T
b1 U
b1 B
b1 J
b1 Q
b111000 j
b111000 ""
b111000 #"
b1 $"
b10101 4
b1 h
b1 p
b1 ~
b0 k
b0 x
b0 y
b0 z
b0 g
b0 o
b0 v
b101000 2"
b101000 ?"
b101000 @"
b11 A"
b11 ."
b11 6"
b11 ="
b110010 W"
b110010 d"
b110010 e"
b10 f"
b1011000101 5
b10 S"
b10 ["
b10 b"
b100 .
1&
#150
b11111111111111111111111111110010111111111111111111111111111010001111111111111111111111111111100000000000000000000000000000000011 +
b10 >
0&
b1011000110 5
b10 (
b10 0
b110 -
#155
b11111111111111111111111111101011 U"
b1 P"
b0 0"
b0 O"
b11111111111111111111111111111011 i
b1 *"
b11111111111111111111111111101011000000000000000000000000000000001111111111111111111111111111101100000000000000000000000000000100 !
b11111111111111111111111111101011000000000000000000000000000000001111111111111111111111111111101100000000000000000000000000000100 6
b100 D
b10 c
b101011 W"
b101011 d"
b101011 e"
b11 f"
b11 S"
b11 ["
b11 b"
b1 I"
b1010101 4
b1 /"
b1 7"
b1 E"
b0 2"
b0 ?"
b0 @"
b0 A"
b0 ."
b0 6"
b0 ="
b11 k
b11 x
b11 y
b1 z
b1 g
b1 o
b1 v
b10 F
b10 S
b10 T
b10 U
b1100011010 5
b10 B
b10 J
b10 Q
b100 .
1&
#160
b11111111111111111111111111101011000000000000000000000000000000001111111111111111111111111111101100000000000000000000000000000100 +
b11 >
0&
b1100011011 5
b11 (
b11 0
b111 -
#165
b101 D
b11 c
b11111111111111111111111111111110 i
b10 *"
b11111111111111111111111111111000 0"
b1 O"
b111111111111111111111111111111110001111111111111111111111111111111000000000000000000000000000000101 !
b111111111111111111111111111111110001111111111111111111111111111111000000000000000000000000000000101 6
b111 U"
b11 F
b11 S
b11 T
b11 U
b11 B
b11 J
b11 Q
b110 k
b110 x
b110 y
b10 z
b10 g
b10 o
b10 v
b111000 2"
b111000 ?"
b111000 @"
b1 A"
b1 ."
b1 6"
b1 ="
b111 V"
b111 l"
b111 m"
b1 n"
b101010101 4
b1 T"
b1 \"
b1 j"
b0 W"
b0 d"
b0 e"
b0 f"
b1101111 5
b0 S"
b0 ["
b0 b"
b100 .
1&
#170
b111111111111111111111111111111110001111111111111111111111111111111000000000000000000000000000000101 +
b10 ?
b0 >
0&
b101010110 4
b10 )
b10 1
b1101100 5
b0 (
b0 0
b1000 -
#175
b0 U"
b11111111111111111111111111110000 0"
b10 O"
b1 i
b11 *"
b10 d
b111111111111111111111111111100000000000000000000000000000000000100000000000000000000000000000100 !
b111111111111111111111111111100000000000000000000000000000000000100000000000000000000000000000100 6
b100 D
b0 c
b111001 W"
b111001 d"
b111001 e"
b1 f"
b1 S"
b1 ["
b1 b"
b110000 2"
b110000 ?"
b110000 @"
b10 A"
b10 ."
b10 6"
b10 ="
b1001 k
b1001 x
b1001 y
b11 z
b11 g
b11 o
b11 v
b100 E
b100 [
b100 \
b10 ]
b101011010 4
b10 C
b10 K
b10 Y
b0 F
b0 S
b0 T
b0 U
b110110000 5
b0 B
b0 J
b0 Q
b100 .
1&
#180
b111111111111111111111111111100000000000000000000000000000000000100000000000000000000000000000100 +
b1 >
0&
b110110001 5
b1 (
b1 0
b1001 -
#185
b101 D
b1 c
b10 +"
b11111111111111111111111111110000 i
b0 *"
b11111111111111111111111111101000 0"
b11 O"
b11111111111111111111111111111001111111111111111111111111111010001111111111111111111111111111000000000000000000000000000000000101 !
b11111111111111111111111111111001111111111111111111111111111010001111111111111111111111111111000000000000000000000000000000000101 6
b11111111111111111111111111111001 U"
b1 F
b1 S
b1 T
b1 U
b1 B
b1 J
b1 Q
b110000 j
b110000 ""
b110000 #"
b10 $"
b101101010 4
b10 h
b10 p
b10 ~
b0 k
b0 x
b0 y
b0 z
b0 g
b0 o
b0 v
b101000 2"
b101000 ?"
b101000 @"
b11 A"
b11 ."
b11 6"
b11 ="
b110010 W"
b110010 d"
b110010 e"
b10 f"
b1011000101 5
b10 S"
b10 ["
b10 b"
b100 .
1&
#190
b11111111111111111111111111111001111111111111111111111111111010001111111111111111111111111111000000000000000000000000000000000101 +
b10 >
0&
b1011000110 5
b10 (
b10 0
b1010 -
#195
b11111111111111111111111111110010 U"
b10 P"
b0 0"
b0 O"
b11111111111111111111111111110011 i
b1 *"
b11111111111111111111111111110010000000000000000000000000000000001111111111111111111111111111001100000000000000000000000000000110 !
b11111111111111111111111111110010000000000000000000000000000000001111111111111111111111111111001100000000000000000000000000000110 6
b110 D
b10 c
b101011 W"
b101011 d"
b101011 e"
b11 f"
b11 S"
b11 ["
b11 b"
b10 I"
b110101010 4
b10 /"
b10 7"
b10 E"
b0 2"
b0 ?"
b0 @"
b0 A"
b0 ."
b0 6"
b0 ="
b11 k
b11 x
b11 y
b1 z
b1 g
b1 o
b1 v
b10 F
b10 S
b10 T
b10 U
b1100011010 5
b10 B
b10 J
b10 Q
b100 .
1&
#200
b11111111111111111111111111110010000000000000000000000000000000001111111111111111111111111111001100000000000000000000000000000110 +
b11 >
0&
b1100011011 5
b11 (
b11 0
b1011 -
#205
b111 D
b11 c
b11111111111111111111111111110110 i
b10 *"
b11111111111111111111111111111000 0"
b1 O"
b1110111111111111111111111111111110001111111111111111111111111111011000000000000000000000000000000111 !
b1110111111111111111111111111111110001111111111111111111111111111011000000000000000000000000000000111 6
b1110 U"
b11 F
b11 S
b11 T
b11 U
b11 B
b11 J
b11 Q
b110 k
b110 x
b110 y
b10 z
b10 g
b10 o
b10 v
b111000 2"
b111000 ?"
b111000 @"
b1 A"
b1 ."
b1 6"
b1 ="
b1110 V"
b1110 l"
b1110 m"
b10 n"
b1010101010 4
b10 T"
b10 \"
b10 j"
b0 W"
b0 d"
b0 e"
b0 f"
b1101111 5
b0 S"
b0 ["
b0 b"
b100 .
1&
#210
b1110111111111111111111111111111110001111111111111111111111111111011000000000000000000000000000000111 +
b11 ?
b0 >
0&
b1010101011 4
b11 )
b11 1
b1101100 5
b0 (
b0 0
b1100 -
#215
b111 U"
b11111111111111111111111111110000 0"
b10 O"
b11111111111111111111111111111001 i
b11 *"
b11 d
b111111111111111111111111111111100001111111111111111111111111111100100000000000000000000000000000110 !
b111111111111111111111111111111100001111111111111111111111111111100100000000000000000000000000000110 6
b110 D
b0 c
b111001 W"
b111001 d"
b111001 e"
b1 f"
b1 S"
b1 ["
b1 b"
b110000 2"
b110000 ?"
b110000 @"
b10 A"
b10 ."
b10 6"
b10 ="
b1001 k
b1001 x
b1001 y
b11 z
b11 g
b11 o
b11 v
b110 E
b110 [
b110 \
b11 ]
b1010101111 4
b11 C
b11 K
b11 Y
b0 F
b0 S
b0 T
b0 U
b110110000 5
b0 B
b0 J
b0 Q
b100 .
1&
#220
b111111111111111111111111111111100001111111111111111111111111111100100000000000000000000000000000110 +
b1 >
0&
b110110001 5
b1 (
b1 0
b1101 -
#225
b111 D
b1 c
b11 +"
b11111111111111111111111111101000 i
b0 *"
b11111111111111111111111111101000 0"
b11 O"
b111111111111111111111111111010001111111111111111111111111110100000000000000000000000000000000111 !
b111111111111111111111111111010001111111111111111111111111110100000000000000000000000000000000111 6
b0 U"
b1 F
b1 S
b1 T
b1 U
b1 B
b1 J
b1 Q
b101000 j
b101000 ""
b101000 #"
b11 $"
b1010111111 4
b11 h
b11 p
b11 ~
b0 k
b0 x
b0 y
b0 z
b0 g
b0 o
b0 v
b101000 2"
b101000 ?"
b101000 @"
b11 A"
b11 ."
b11 6"
b11 ="
b110010 W"
b110010 d"
b110010 e"
b10 f"
b1011000101 5
b10 S"
b10 ["
b10 b"
b100 .
1&
#230
b111111111111111111111111111010001111111111111111111111111110100000000000000000000000000000000111 +
b10 >
0&
b1011000110 5
b10 (
b10 0
b1110 -
#235
b11111111111111111111111111111001 U"
b11 P"
b0 0"
b0 O"
b11111111111111111111111111101011 i
b1 *"
b11111111111111111111111111111001000000000000000000000000000000001111111111111111111111111110101100000000000000000000000000001000 !
b11111111111111111111111111111001000000000000000000000000000000001111111111111111111111111110101100000000000000000000000000001000 6
b1000 D
b10 c
b101011 W"
b101011 d"
b101011 e"
b11 f"
b11 S"
b11 ["
b11 b"
b11 I"
b1011111111 4
b11 /"
b11 7"
b11 E"
b0 2"
b0 ?"
b0 @"
b0 A"
b0 ."
b0 6"
b0 ="
b11 k
b11 x
b11 y
b1 z
b1 g
b1 o
b1 v
b10 F
b10 S
b10 T
b10 U
b1100011010 5
b10 B
b10 J
b10 Q
b100 .
1&
#240
b11111111111111111111111111111001000000000000000000000000000000001111111111111111111111111110101100000000000000000000000000001000 +
b11 >
0&
b1100011011 5
b11 (
b11 0
b1111 -
#245
b1001 D
b11 c
b11111111111111111111111111101110 i
b10 *"
b11111111111111111111111111111000 0"
b1 O"
b10101111111111111111111111111111110001111111111111111111111111110111000000000000000000000000000001001 !
b10101111111111111111111111111111110001111111111111111111111111110111000000000000000000000000000001001 6
b10101 U"
b11 F
b11 S
b11 T
b11 U
b11 B
b11 J
b11 Q
b110 k
b110 x
b110 y
b10 z
b10 g
b10 o
b10 v
b111000 2"
b111000 ?"
b111000 @"
b1 A"
b1 ."
b1 6"
b1 ="
b10101 V"
b10101 l"
b10101 m"
b11 n"
b1111111111 4
b11 T"
b11 \"
b11 j"
b0 W"
b0 d"
b0 e"
b0 f"
b1101111 5
b0 S"
b0 ["
b0 b"
b100 .
1&
#250
b10101111111111111111111111111111110001111111111111111111111111110111000000000000000000000000000001001 +
0&
b10000 -
#255
b1110 U"
b11111111111111111111111111110000 0"
b10 O"
b1110111111111111111111111111111100001111111111111111111111111111000100000000000000000000000000001001 !
b1110111111111111111111111111111100001111111111111111111111111111000100000000000000000000000000001001 6
b11111111111111111111111111110001 i
b11 *"
b111001 W"
b111001 d"
b111001 e"
b1 f"
b1 S"
b1 ["
b1 b"
b110000 2"
b110000 ?"
b110000 @"
b10 A"
b10 ."
b10 6"
b10 ="
b1001 k
b1001 x
b1001 y
b11 z
b110111111 5
b11 g
b11 o
b11 v
b100 .
1&
#260
b1110111111111111111111111111111100001111111111111111111111111111000100000000000000000000000000001001 +
0&
